…
pts <- sf::read_sf(system.file("datasets/penbay-points.gpkg", package = 'twinkle'))
# Simple feature collection with 100 features and 6 fields
# geometry type:  POINT
# dimension:      XY
# bbox:           xmin: -69.18 ymin: 43.79 xmax: -68.49 ymax: 44.41
# geographic CRS: WGS 84
# # A tibble: 100 x 7
#     index  cell   col   row layer   sst           geom
#     <int> <dbl> <dbl> <dbl> <dbl> <dbl>    <POINT [°]>
#  1  95384  3368    31    48    19  284. (-68.89 44.03)
#  2  19875  4539    66    64     4  282. (-68.54 43.87)
#  3 136212  3300    34    47    27  285. (-68.86 44.04)
#  4 145992  2856    16    41    29  287.  (-69.04 44.1)
#  5 130243  2443    29    35    26  285. (-68.91 44.16)
#  6  78418  1738    34    25    16  284. (-68.86 44.26)
#  7  60452  4220    31    60    12  285. (-68.89 43.91)
#  8 104298  2058    70    29    21  285.  (-68.5 44.22)
#  9  55121  4001    25    57    11  285. (-68.95 43.94)
# 10  64280  2936    25    42    13  285. (-68.95 44.09)
# # … with 90 more rows
…
